…
## Usage

The two main functions of {ffopportunity} are `ep_load()` and
`ep_build()`.

You can download the latest version of the EP data with `ep_load()` as
follows:

``` r
library(ffopportunity)
#> Warning: package 'ffopportunity' was built under R version 4.2.1
ep_load(season = 2020:2021, type = "weekly")
#> → <ffopportunity predictions>
#> → Generated 2022-09-12 12:59:18 with ep model version "latest"
#> # A tibble: 11,769 × 159
#>    season posteam  week game_id  playe…¹ full_…² posit…³ pass_…⁴ rec_a…⁵ rush_…⁶
#>    <chr>  <chr>   <dbl> <chr>    <chr>   <chr>   <chr>     <dbl>   <dbl>   <dbl>
#>  1 2020   SF          1 2020_01… 00-003… Jimmy … QB           33       0       1
#>  2 2020   SF          1 2020_01… 00-003… George… TE            0       5       1
#>  3 2020   ARI         1 2020_01… 00-003… Kyler … QB           39       0      11
#>  4 2020   ARI         1 2020_01… 00-003… DeAndr… WR            0      16       0
#>  5 2020   ARI         1 2020_01… 00-002… Larry … WR            0       5       0
#>  6 2020   ARI         1 2020_01… <NA>    <NA>    <NA>          0       2       0
#>  7 2020   SF          1 2020_01… 00-003… Raheem… RB            0       5      15
#>  8 2020   ARI         1 2020_01… 00-003… Kenyan… RB            0       2      16
#>  9 2020   ARI         1 2020_01… 00-003… Christ… WR            0       5       0
#> 10 2020   SF          1 2020_01… 00-003… Trent … WR            0       5       0
#> # … with 11,759 more rows, 149 more variables: pass_air_yards <dbl>,
#> #   rec_air_yards <dbl>, pass_completions <dbl>, receptions <dbl>,
#> #   pass_completions_exp <dbl>, receptions_exp <dbl>, pass_yards_gained <dbl>,
#> #   rec_yards_gained <dbl>, rush_yards_gained <dbl>,
#> #   pass_yards_gained_exp <dbl>, rec_yards_gained_exp <dbl>,
#> #   rush_yards_gained_exp <dbl>, pass_touchdown <dbl>, rec_touchdown <dbl>,
#> #   rush_touchdown <dbl>, pass_touchdown_exp <dbl>, rec_touchdown_exp <dbl>, …
#> # ℹ Use `print(n = ...)` to see more rows, and `colnames()` to see all variable names
```
…
